ETS priors
…
  #' How many started treatment after sympton onset report and remove
  ets_sym %>%
    filter(time_symptomatic < 0) %>%
    dplyr::select(time_symptomatic)

## # A tibble: 124 x 1
##    time_symptomatic
##    <time>          
##  1 -24             
##  2 -10             
##  3 -22             
##  4 -69             
##  5 -58             
##  6 -15             
##  7 -15             
##  8 -25             
##  9 -3              
## 10 -7              
## # ... with 114 more rows
…
