Setup Input Model Data — setup_model_input • ModelTBBCGEngland
…
#>  1     0 0.0682
#>  2     1 0.0651
#>  3     2 0.0651
#>  4     3 0.0650
#>  5     4 0.0635
#>  6     5 0.0609
#>  7     6 0.0627
#>  8     7 0.0673
#>  9     8 0.0703
#> 10     9 0.0684
#> 11    10 0.232 
#> 12    11 0.112 
#> 
#> $births_input
#> # A tibble: 81 x 2
#>     time  value
#>    <dbl>  <dbl>
#>  1     0 589751
#>  2     1 573099
#>  3     2 540989
#>  4     3 557686
#>  5     4 559569
#>  6     5 567383
#>  7     6 573382
#>  8     7 583579
#>  9     8 581950
#> 10     9 567710
#> # … with 71 more rows
#> 
#> $exp_life_span
#> # A tibble: 972 x 3
#>     time   age value
#>    <dbl> <int> <dbl>
#>  1     0     0  75.3
#>  2     0     1 777. 
#>  3     0     2 955. 
#>  4     0     3 563. 
#>  5     0     4 793. 
#>  6     0     5 988. 
#>  7     0     6 909. 
#>  8     0     7 635. 
#>  9     0     8 317. 
#> 10     0     9 128. 
#> # … with 962 more rows
#> 
#> $polymod
#> # A tibble: 144 x 3
#>      age  age2 value
#>    <int> <int> <dbl>
#>  1     0     0 702. 
#>  2     0     1 295. 
#>  3     0     2 170. 
#>  4     0     3 110. 
#>  5     0     4 175. 
#>  6     0     5 291. 
#>  7     0     6 324. 
#>  8     0     7 390. 
#>  9     0     8 160. 
#> 10     0     9  99.3
#> # … with 134 more rows
#> 
#> $polymod_sd
#> # A tibble: 144 x 3
#>      age  age2 value
#>    <int> <int> <dbl>
#>  1     0     0 125. 
#>  2     0     1  31.6
#>  3     0     2  28.7
#>  4     0     3  20.7
#>  5     0     4  33.5
#>  6     0     5  34.5
#>  7     0     6  37.3
#>  8     0     7  64.9
#>  9     0     8  31.4
#> 10     0     9  18.9
#> # … with 134 more rows
#> 
#> $avg_contacts
#> [1] 4031
#> 
#> $NonUKBornPCases
#> # A tibble: 1,212 x 3
#>     time   age value
#>    <dbl> <dbl> <dbl>
#>  1    69     0    15
#>  2    69     1     6
#>  3    69     2    32
#>  4    69     3    92
#>  5    69     4   216
#>  6    69     5   260
#>  7    69     6   245
#>  8    69     7   131
#>  9    69     8   110
#> 10    69     9    84
#> # … with 1,202 more rows
…
