Setup Observed Model Data — setup_model_obs • ModelTBBCGEngland
…
#>     time value
#>    <dbl> <dbl>
#>  1    59  3618
#>  2    60  3596
#>  3    61  3816
#>  4    62  3961
#>  5    63  3694
#>  6    64  3711
#>  7    65  3690
#>  8    66  3947
#>  9    67  3926
#> 10    68  3827
#> 
#> $YearlyAgeInc
#> # A tibble: 240 x 3
#>     time   age value
#>    <dbl> <dbl> <int>
#>  1    69     0    75
#>  2    69     1    59
#>  3    69     2    75
#>  4    69     3   112
#>  5    69     4   133
#>  6    69     5   116
#>  7    69     6   147
#>  8    69     7    99
#>  9    69     8    83
#> 10    69     9   105
#> # ... with 230 more rows
…
